%YAML 1.1
%TAG !u! tag:unity3d.com,2011:
--- !u!114 &11400000
MonoBehaviour:
  m_ObjectHideFlags: 0
  m_CorrespondingSourceObject: {fileID: 0}
  m_PrefabInstance: {fileID: 0}
  m_PrefabAsset: {fileID: 0}
  m_GameObject: {fileID: 0}
  m_Enabled: 1
  m_EditorHideFlags: 0
  m_Script: {fileID: 11500000, guid: 5407f71b6bb02a24e867f65da47165a9, type: 3}
  m_Name: ScoreThresholdSettings
  m_EditorClassIdentifier: 
  acceptedScore: 3
  limits:
  - distance: 0.5
    value: 3
  - distance: 1
    value: 2
  - distance: 1.98
    value: 1.81
